<?xml version="1.0" encoding="UTF-8" standalone="no"?>
<!-- Created with Inkscape (http://www.inkscape.org/) -->

<svg
   width="136"
   height="34"
   viewBox="0 0 35.983332 8.9958333"
   version="1.1"
   id="svg5"
   inkscape:version="1.2 (dc2aeda, 2022-05-15)"
   sodipodi:docname="ship-4-alive.svg"
   inkscape:export-filename="ship-4-alive.png"
   inkscape:export-xdpi="96"
   inkscape:export-ydpi="96"
   xmlns:inkscape="http://www.inkscape.org/namespaces/inkscape"
   xmlns:sodipodi="http://sodipodi.sourceforge.net/DTD/sodipodi-0.dtd"
   xmlns="http://www.w3.org/2000/svg"
   xmlns:svg="http://www.w3.org/2000/svg">
  <sodipodi:namedview
     id="namedview7"
     pagecolor="#ffffff"
     bordercolor="#666666"
     borderopacity="1.0"
     inkscape:showpageshadow="2"
     inkscape:pageopacity="0.0"
     inkscape:pagecheckerboard="0"
     inkscape:deskcolor="#d1d1d1"
     inkscape:document-units="mm"
     showgrid="true"
     inkscape:zoom="4.7572176"
     inkscape:cx="38.257657"
     inkscape:cy="22.597243"
     inkscape:window-width="1366"
     inkscape:window-height="714"
     inkscape:window-x="0"
     inkscape:window-y="0"
     inkscape:window-maximized="1"
     inkscape:current-layer="layer1">
    <inkscape:grid
       type="xygrid"
       id="grid132"
       spacingx="4.4979166"
       spacingy="4.4979166"
       empspacing="2"
       originx="0"
       originy="0" />
  </sodipodi:namedview>
  <defs
     id="defs2" />
  <g
     inkscape:label="Layer 1"
     inkscape:groupmode="layer"
     id="layer1">
    <path
       id="rect207"
       style="fill:none;stroke:#000000;stroke-width:0.513126;stroke-dasharray:none"
       d="M 4.4979167,0.52116388 H 8.4746871 V 8.4746724 H 4.4979167 c 0,0 -3.97677036,0.034502 -3.97677036,-3.9767543 0,-4.01125644 3.97677036,-3.97675422 3.97677036,-3.97675422 z"
       sodipodi:nodetypes="cccczc" />
    <path
       id="path2862"
       style="fill:none;stroke:#000000;stroke-width:0.513127;stroke-dasharray:none"
       d="m 18.512814,0.52114685 h 7.953539 V 8.4746867 h -7.953539 z" />
    <path
       id="path2913"
       style="fill:none;stroke:#000000;stroke-width:0.513126;stroke-dasharray:none"
       d="M 31.485417,0.52116388 H 27.508646 V 8.4746724 h 3.976771 c 0,0 3.97677,0.034502 3.97677,-3.9767543 0,-4.01125644 -3.97677,-3.97675422 -3.97677,-3.97675422 z"
       sodipodi:nodetypes="cccczc" />
    <path
       id="path3195"
       style="fill:none;stroke:#000000;stroke-width:0.513127;stroke-dasharray:none"
       d="M 9.5169802,0.52114685 H 17.470519 V 8.4746867 H 9.5169802 Z" />
  </g>
</svg>
